{
  "openapi": "3.0.0",
  "info": {
    "description": "N-Body-Problem-Solver",
    "version": "1.0.0",
    "title": "N-Body-Problem-Solver - Gabriel Meireles - UFMG",
    "contact": {
      "email": "gabrielfribeiro@ufmg.br"
    },
    "license": {
      "name": "MIT",
      "url": "https://opensource.org/licenses/MIT"
    }
  },
  "paths": {
    "/simulate": {
      "post": {
        "summary": "Returns graph points",
        "requestBody": {
          "description": "Bodies",
          "required": true,
          "content": {
            "application/json": {
              "schema": {
                "$ref": "#/components/schemas/simulatePostBody"
              }
            }
          }
        },
        "responses": {
          "200": {
            "description": "OK"
          }
        }
      }
    }
  },
  "components": {
    "schemas": {
      "simulatePostBody": {
        "type": "object",
        "properties": {
          "knownBodies": {
            "type": "array",
            "items": {
              "type": "integer"
            }
          },
          "unknownBodies": {
            "type": "array",
            "items": {
              "type": "object",
              "properties": {
                "x": {
                  "type": "integer"
                },
                "y": {
                  "type": "integer"
                },
                "z": {
                  "type": "integer"
                },
                "vx": {
                  "type": "integer"
                },
                "vy": {
                  "type": "integer"
                },
                "vz": {
                  "type": "integer"
                },
                "radius": {
                  "type": "integer"
                },
                "mass": {
                  "type": "integer"
                },
                "referenceBodyId": {
                  "type": "integer"
                }
              }
            }
          }
        }
      },
      "simulateResponse": {
        "type": "object",
        "properties": {
          "title": {
            "type": "string",
            "format": "string"
          },
          "email": {
            "type": "string",
            "format": "email"
          }
        }
      }
    }
  }
}